,0,1
delhi,271,148768
patna,398,5345
bhubaneswar,1,9674
ludhiana,59,1493
nagpur,236,4805
visakhapatnam,81,1600
coimbatore,59,2905
goa,122,5360
pune,215,23814
chandigarh,163,9604
thiruvananthapuram,24,731
vadodara,58,1866
dehradun,162,2403
mumbai,308,105133
kolkata,194,19520
hyderabad,281,43459
ahmedabad,261,7530
bhopal,76,3380
chennai,41,34580
jaipur,208,11125
gurgaon,13,25060
puducherry,1,458
kolhapur,43,336
shimla,9,1342
lucknow,146,10523
surat,65,3888
agra,49,1056
bengaluru,42,45651
kochi,55,1426
salem,4,2807
rajkot,51,806
thane,7,1802
aurangabad,64,1138
kanpur,66,2100
allahabad,79,1136
madurai,35,1337
erode,2,358
nashik,100,1192
bareilly,27,746
meerut,37,963
mangaluru,1,568
vijayawada,48,1609
ajmer,7,389
jodhpur,11,1347
varanasi,53,2927
udaipur,5,1122
amritsar,5,779
noida,8,12203
kozhikode,4,539
srinagar,1,10354
indore,2,3434
ranchi,9,2101
jamshedpur,1,950
guwahati,1,10782
raipur,1,1978
